<svg xmlns="http://www.w3.org/2000/svg" xmlns:xlink="http://www.w3.org/1999/xlink" width="1920" height="1316" viewBox="0 0 1920 1316">
  <defs>
    <linearGradient id="linear-gradient" x2="0.973" y2="0.963" gradientUnits="objectBoundingBox">
      <stop offset="0"/>
      <stop offset="1" stop-color="#454343"/>
    </linearGradient>
  </defs>
  <rect id="Rectángulo_274" data-name="Rectángulo 274" width="1920" height="1316" fill="url(#linear-gradient)"/>
</svg>
