<svg id="Flying_Fish_Social_Icons-01" data-name="Flying Fish Social Icons-01" xmlns="http://www.w3.org/2000/svg" width="29.486" height="29.78" viewBox="0 0 29.486 29.78">
  <path id="Shape" d="M14.748,29.78h0A14.668,14.668,0,0,1,4.319,25.417,15,15,0,0,1,1.125,9.189a14.809,14.809,0,0,1,5.43-6.681A14.63,14.63,0,0,1,25.169,4.362,15,15,0,0,1,27,23.162a14.724,14.724,0,0,1-6.617,5.484A14.533,14.533,0,0,1,14.748,29.78ZM9.942,12.05v3.422h1.893v9.74h3.988v-9.74h2.63l.342-3.418H15.822V10.039a.816.816,0,0,1,.845-.93h2.142V5.79l-2.951-.015a3.761,3.761,0,0,0-4.024,4.064V12.05H9.942Z" transform="translate(0)" fill="#baa769"/>
</svg>
